+------------------------------------------------------------------+-------+
| token                                                            | login |
+------------------------------------------------------------------+-------+
| 0cef2af0118517040fb61fa7eaa390083fb53667618354bb3817d316dc1fa59a | admin |
+------------------------------------------------------------------+-------+